
[

	{"inputs": ["char(65)"], "output": "\"A\"\n"}
	{"inputs": ["char(66)"], "output": "\"B\"\n"}
	{"inputs": ["char(10)"], "output": "\"\\n\"\n"}
	{"inputs": ["char(0x12ED)"], "output": "\"\\u12ED\"\n"}

]
