
[
	{"inputs": ["long(true)"], "output": "1L\n"}
	{"inputs": ["long(false)"], "output": "0L\n"}
	
	{"inputs": ["long(0)"], "output": "0L\n"}
	{"inputs": ["long(1)"], "output": "1L\n"}
	{"inputs": ["long(2)"], "output": "2L\n"}
	
	{"inputs": ["long(0L)"], "output": "0L\n"}
	{"inputs": ["long(1L)"], "output": "1L\n"}
	{"inputs": ["long(2L)"], "output": "2L\n"}
	
	{"inputs": ["long(0.0)"], "output": "0L\n"}
	{"inputs": ["long(1.0)"], "output": "1L\n"}
	{"inputs": ["long(1.5)"], "output": "1L\n"}
	{"inputs": ["long(2.0)"], "output": "2L\n"}
	
	{"inputs": ["long(\"0\")"], "output": "0L\n"}
	{"inputs": ["long(\"1\")"], "output": "1L\n"}
	{"inputs": ["long(\"2\")"], "output": "2L\n"}
	
]
