[


	{"inputs": ["str(true)"], "output": "\"true\"\n"}
	{"inputs": ["str(false)"], "output": "\"false\"\n"}

	{"inputs": ["str(0)"], "output": "\"0\"\n"}
	{"inputs": ["str(1)"], "output": "\"1\"\n"}
	{"inputs": ["str(2)"], "output": "\"2\"\n"}
	
	{"inputs": ["str(0L)"], "output": "\"0L\"\n"}
	{"inputs": ["str(1L)"], "output": "\"1L\"\n"}
	{"inputs": ["str(2L)"], "output": "\"2L\"\n"}
	
	{"inputs": ["str(0.5)"], "output": "\"0.5\"\n"}
	{"inputs": ["str(1.5)"], "output": "\"1.5\"\n"}
	{"inputs": ["str(2.5)"], "output": "\"2.5\"\n"}
	{"inputs": ["str(Inf)"], "output": "\"Inf\"\n"}
	{"inputs": ["str(-Inf)"], "output": "\"-Inf\"\n"}
	{"inputs": ["str(NaN)"], "output": "\"NaN\"\n"}
	
	{"inputs": ["str([])"], "output": "\"[]\"\n"}
	{"inputs": ["str([1])"], "output": "\"[1]\"\n"}
	{"inputs": ["str([1, 2, 3])"], "output": "\"[1, 2, 3]\"\n"}

	{"inputs": ["str({})"], "output": "\"{}\"\n"}
	{
		"inputs": ["str({a: 1, b: 2})"],
		"output": "\"{\\\"a\\\": 1, \\\"b\\\": 2}\"\n"
	}

]
