
[
	{
		"inputs": ["3 + 4"],
		"output": "7\n"
	},
	{
		"inputs": ["-42 + -23"],
		"output":  "-65\n"
	},
	{
		"inputs": ["4294967296 + 4294967296"],
		"output":  "8589934592\n"
	},
	{
		"inputs": ["9223372036854775807 + 9223372036854775807"],
		"output":  "18446744073709551614L\n"
	},
	{
		"inputs": ["18446744073709551616 + 18446744073709551616"],
		"output":  "36893488147419103232L\n"
	},
	{
		"inputs": ["18446744073709551616L + 18446744073709551616L"],
		"output":  "36893488147419103232L\n"
	},
	{
		"inputs": ["-18446744073709551616 + -18446744073709551616"],
		"output":  "-36893488147419103232L\n"
	},
	{
		"inputs": ["-18446744073709551616L + -18446744073709551616L"],
		"output":  "-36893488147419103232L\n"
	},
	{ "inputs": ["2.3 + 3.2"], "output": "5.5\n" },
	{ "inputs": ["2   + 3.5"], "output": "5.5\n" },
	{ "inputs": ["2.5 + 3  "], "output": "5.5\n" },
	{
		"inputs": ["3L + 2L"],
		"output":  "5L\n"
	},
	{
		"inputs": ["3L + 2"],
		"output":  "5L\n"
	},
	{
		"inputs": ["3 + 2L"],
		"output":  "5L\n"
	},
	{
		"inputs": ["3.2 + 2L"],
		"output":  "5.2\n"
	},
	{
		"inputs": ["3L + 2.2"],
		"output":  "5.2\n"
	},
	
	{ "inputs": ["\"abc\" + \"123\""], "output":  "\"abc123\"\n" },
	{ "inputs": ["\"\" + \"123\""], "output":  "\"123\"\n" },
	{ "inputs": ["\"abc\" + \"\""], "output":  "\"abc\"\n" },
	{ "inputs": ["\"\" + \"\""], "output":  "\"\"\n" },
	
	{ "inputs": ["[1, 2, 3] + [4, 5, 6]"], "output":  "[1, 2, 3, 4, 5, 6]\n" },
	{ "inputs": ["[1, 2, 3] + []"], "output":  "[1, 2, 3]\n" },
	{ "inputs": ["[] + [4, 5, 6]"], "output":  "[4, 5, 6]\n" },
	{ "inputs": ["[] + []"], "output":  "[]\n" },
	{ "inputs": ["[1] + [2] + [3] + [4] + [5]"], "output": "[1, 2, 3, 4, 5]\n" },
]















