
[
	{
		"inputs": ["6 ^ 4"],
		"output": "2\n"
	},
	{
		"inputs": ["14 ^ 12 ^ 8"],
		"output": "10\n"
	},
	{
		"inputs": ["0 ^ 0"],
		"output": "0\n"
	},
	{
		"inputs": ["0xFF ^ 0x0F"],
		"output": "240\n"
	},
	{
		"inputs": ["15L ^ 7L"],
		"output": "8L\n"
	},
]
