
[
	{
		"inputs": ["func(){2}"],
		"output": "func(){2}\n"
	},
	{
		"inputs": ["`2"],
		"output": "func(){2}\n"
	},
	{
		"inputs": ["func(x, y, z){x + y + z}"],
		"output": "func(x, y, z){x + y + z}\n"
	},
	{
		"inputs": ["````(x + y + z)"],
		"output": "func(x, y, z){(x + y + z)}\n"
	},
]
