
[
	{"inputs": ["true ? 3 : 4"], "output": "3\n" },
	{"inputs": ["false ? 3 : 4"], "output": "4\n" },
	{"inputs": ["3 ?: 4"], "output": "3\n" },
	{"inputs": ["0 ?: 4"], "output": "4\n" },
	
	{"inputs": ["0 ?: 0 ?: 0 ?: 3"], "output": "3\n" },
	{"inputs": ["0 ?: 0 ?: [1] ?: 0"], "output": "[1]\n" },
	{"inputs": ["0 ?: 3.14 ?: 0 ?: 0"], "output": "3.14\n" },
]
