
[

	{ "inputs": ["M_E"],     "output": "2.718281828459045235360287471353\n" },
	{ "inputs": ["M_PI"],    "output": "3.14159265358979323846264338328\n" },
	{ "inputs": ["M_SQRT2"], "output": "1.41421356237309504880168872421\n" },
	
]
