
[
	{
		"inputs": ["3"],
		"output": "3\n"
	},
	{
		"inputs": ["4294967296"],
		"output":  "4294967296\n"
	},
	{
		"inputs": ["18446744073709551610"],
		"output":  "18446744073709551610L\n"
	},
	{
		"inputs": ["18446744073709551616"],
		"output":  "18446744073709551616L\n"
	},
	{
		"inputs": ["9223372036854775807"],
		"output":  "9223372036854775807\n"
	},
	{
		"inputs": ["9223372036854775808"],
		"output":  "9223372036854775808L\n"
	},
	{
		"inputs": ["0101"],
		"output":  "65\n"
	},
	{
		"inputs": ["0x00"],
		"output":  "0\n"
	},
	{
		"inputs": ["0x0F"],
		"output":  "15\n"
	},
	{
		"inputs": ["0xFF"],
		"output":  "255\n"
	},
]
