
[
	{
		"inputs": [
			"func(){feedback i = 0, i + 1}",
			"foreach(`print($0()), range(0, 10))"
		],
		"output":
			"0\n1\n2\n3\n4\n5\n6\n7\n8\n9\n"
	}
	{
		"inputs": [
			"func(){feedback x = 1, y = 1: x + y}",
			"foreach(`print($0()), range(0, 10))"
		],
		"output":
			"0\n1\n2\n3\n4\n5\n6\n7\n8\n9\n"
	}
	{
		"inputs": [
			"func(x){static s = x: s + x}",
			"map(``print($0(x)), range(0, 10)).last"
		],
		"output":
			"45\n"
	}
	{
		"inputs": [
			"func(x){static x = 1, y = 1: x + y}",
			"[$0, $0(), $0, $0(), $0]"
		],
		"output":
			"[func(x){static x = 1, y = 1: x + y}, 1, func(x){static x = 1, y = 1: x + y}, 1, func(x){static x = 1, y = 1: x + y}]\n"
	}
]
